ring     1
necklace 2
bracelet 3
earrings 4
ring     55
necklace  4353
bracelet 34
earrings 43254
ring     2232
necklace  3
bracelet  324
earrings  324
ring      324
necklace  4
bracelet  333
earrings   2345345
ring     334
necklace  43
bracelet  234
earrings  433
ring      34
necklace  3
bracelet 34
earrings 34
ring 3434
necklace 34
bracelet 565
earrings 767
ring 56
necklace 54
bracelet 5464
earrings 56
ring  654
necklace 87
bracelet 98
earrings 89
ring 90
necklace 876
bracelet 876
earrings 6765
ring  78
necklace 989 
bracelet 78
earrings 78
ring  98 
necklace 98
bracelet 565
earrings 56
ring 87
necklace 88
bracelet 880
earrings 7
ring 989
necklace 99
bracelet 66666666
earrings 76
ring   676
necklace  5655
bracelet 676
earrings 565
ring  5444563
necklace 546754
bracelet  654
earrings 567
ring 786
necklace 7686
bracelet 76876
earrings 768
ring 658
necklace  6587
bracelet 567
earrings 567
ring 567
necklace 567
bracelet 56789
earrings 889
ring 987
necklace 9879
bracelet 979
earrings 79
ring 6787
necklace 655
bracelet 6586
earrings 554675
ring 768
necklace 675
bracelet 56765
earrings 10000000000
ring 555
necklace 565
bracelet 56
earrings 565
ring 57
necklace 567
bracelet 657
earrings 677
ring 87
necklace  767
bracelet 675
earrings 56
